   2.6694497e+03   1.2454271e+03   2.5835227e+03   1.3980351e+03   2.5040089e+03   1.5502611e+03   2.4274946e+03   1.6982156e+03   2.3535997e+03   1.8426775e+03   2.2818970e+03   1.9843370e+03   2.2119848e+03   2.1236962e+03
   2.5656537e+03   1.2107444e+03   2.4815885e+03   1.3741266e+03   2.4051151e+03   1.5346082e+03   2.3251762e+03   1.6856605e+03   2.2511184e+03   1.8365637e+03   2.1770804e+03   1.9830495e+03   2.1043490e+03   2.1264635e+03
   2.4601336e+03   1.1799809e+03   2.3724218e+03   1.3479031e+03   2.2890890e+03   1.5112442e+03   2.2095678e+03   1.6696544e+03   2.1325716e+03   1.8236587e+03   2.0572957e+03   1.9764014e+03   1.9846511e+03   2.1252673e+03
   2.3386143e+03   1.1405685e+03   2.2504081e+03   1.3162021e+03   2.1719120e+03   1.4916081e+03   2.0919687e+03   1.6573395e+03   2.0143765e+03   1.8190567e+03   1.9386054e+03   1.9777184e+03   1.8604384e+03   2.1308654e+03
   2.2105645e+03   1.0998911e+03   2.1278462e+03   1.2904316e+03   2.0437527e+03   1.4689455e+03   1.9624580e+03   1.6418528e+03   1.8790436e+03   1.8076251e+03   1.8037259e+03   1.9749886e+03   1.7297700e+03   2.1394779e+03
   2.0764770e+03   1.0590994e+03   1.9873867e+03   1.2539731e+03   1.8995421e+03   1.4404036e+03   1.8169017e+03   1.6222116e+03   1.7374108e+03   1.8000457e+03   1.6590130e+03   1.9745138e+03   1.5802167e+03   2.1433660e+03
   1.9298314e+03   1.0141539e+03   1.8396668e+03   1.2197557e+03   1.7499195e+03   1.4165171e+03   1.6639596e+03   1.6055162e+03   1.5812097e+03   1.7916338e+03   1.4993749e+03   1.9728249e+03   1.4209281e+03   2.1496341e+03
   1.7667594e+03   9.6311247e+02   1.6748072e+03   1.1805704e+03   1.5848620e+03   1.3890949e+03   1.4957702e+03   1.5881942e+03   1.4101611e+03   1.7819340e+03   1.3282692e+03   1.9736853e+03   1.2507776e+03   2.1625004e+03
   1.5781228e+03   9.0504098e+02   1.4855362e+03   1.1344217e+03   1.3954834e+03   1.3540227e+03   1.3071449e+03   1.5658928e+03   1.2202875e+03   1.7717366e+03   1.1392086e+03   1.9764563e+03   1.0533465e+03   2.1675138e+03
