   2.9518812e+03   7.8790554e+02   2.9093127e+03   9.7832474e+02   2.8673997e+03   1.1626305e+03   2.8317938e+03   1.3439510e+03   2.7886749e+03   1.5119923e+03   2.7523406e+03   1.6780507e+03   2.7228270e+03   1.8414550e+03
   2.8139761e+03   7.7613269e+02   2.7716294e+03   9.7305363e+02   2.7332920e+03   1.1674120e+03   2.6922097e+03   1.3445959e+03   2.6569520e+03   1.5217143e+03   2.6207587e+03   1.6877849e+03   2.5864392e+03   1.8515579e+03
   2.6693617e+03   7.6833397e+02   2.6265995e+03   9.6978747e+02   2.5857720e+03   1.1643328e+03   2.5469567e+03   1.3501255e+03   2.5120748e+03   1.5265982e+03   2.4771409e+03   1.6997229e+03   2.4483830e+03   1.8736835e+03
   2.5095429e+03   7.5315367e+02   2.4688844e+03   9.6142859e+02   2.4305669e+03   1.1615981e+03   2.3952406e+03   1.3522386e+03   2.3619419e+03   1.5365083e+03   2.3312585e+03   1.7147348e+03   2.3035588e+03   1.8926031e+03
   2.3427031e+03   7.3745579e+02   2.3058713e+03   9.5378715e+02   2.2701449e+03   1.1610791e+03   2.2388698e+03   1.3584946e+03   2.2084897e+03   1.5487892e+03   2.1805882e+03   1.7334592e+03   2.1541426e+03   1.9118974e+03
   2.1697783e+03   7.2203749e+02   2.1355825e+03   9.4667417e+02   2.1021341e+03   1.1607646e+03   2.0720742e+03   1.3651790e+03   2.0445921e+03   1.5615620e+03   2.0176144e+03   1.7516630e+03   1.9895885e+03   1.9337490e+03
   1.9838978e+03   7.0511707e+02   1.9537885e+03   9.3874928e+02   1.9233759e+03   1.1613994e+03   1.8942270e+03   1.3719473e+03   1.8682992e+03   1.5750314e+03   1.8420378e+03   1.7704134e+03   1.8164072e+03   1.9598801e+03
   1.7828645e+03   6.8645719e+02   1.7557774e+03   9.2947381e+02   1.7300219e+03   1.1612096e+03   1.7037498e+03   1.3797075e+03   1.6791588e+03   1.5890389e+03   1.6570641e+03   1.7922836e+03   1.6361485e+03   1.9913246e+03
   1.5641176e+03   6.6596062e+02   1.5413516e+03   9.1909457e+02   1.5201560e+03   1.1607287e+03   1.4984202e+03   1.3893151e+03   1.4772387e+03   1.6032023e+03   1.4560116e+03   1.8129937e+03   1.4346868e+03   2.0165974e+03
